<?xml version="1.0" encoding="utf-8"?>
<!-- Generator: Adobe Illustrator 25.0.0, SVG Export Plug-In . SVG Version: 6.00 Build 0)  -->
<svg version="1.1" id="Layer_1" xmlns="http://www.w3.org/2000/svg" xmlns:xlink="http://www.w3.org/1999/xlink" x="0px" y="0px"
	 viewBox="0 0 1122 1122" style="enable-background:new 0 0 1122 1122;" xml:space="preserve">
<style type="text/css">
	.st0{fill:#FFFFFF;}
</style>
<g id="XMLID_323_">
	<path id="XMLID_328_" class="st0" d="M768.1,1087.8H358.3c-178.4,0-323.6-145.2-323.6-323.6V354.4c0-178.4,145.2-323.6,323.6-323.6
		h409.8c178.5,0,323.6,145.2,323.6,323.6v409.8C1091.7,942.6,946.5,1087.8,768.1,1087.8z M358.3,109.9
		c-134.8,0-244.5,109.7-244.5,244.5v409.8c0,134.8,109.7,244.5,244.5,244.5h409.8c134.8,0,244.5-109.7,244.5-244.5V354.4
		c0-134.8-109.7-244.5-244.5-244.5H358.3z"/>
	<path id="XMLID_325_" class="st0" d="M563.2,826.7c-147.4,0-267.4-120-267.4-267.4c0-147.4,119.9-267.4,267.4-267.4
		c147.4,0,267.4,120,267.4,267.4C830.6,706.7,710.6,826.7,563.2,826.7z M563.2,372.9c-102.7,0-186.3,83.6-186.3,186.3
		c0,102.7,83.6,186.3,186.3,186.3c102.7,0,186.3-83.6,186.3-186.3C749.5,456.5,665.9,372.9,563.2,372.9z"/>
	<path id="XMLID_324_" class="st0" d="M929.3,262.8c0,38.4-31.2,69.6-69.6,69.6c-38.5,0-69.6-31.2-69.6-69.6
		c0-38.5,31.2-69.6,69.6-69.6C898.1,193.2,929.3,224.4,929.3,262.8z"/>
</g>
</svg>
